A,A,A,A,A,D,A,A,A,A,A,A,A,A,A,A,A,A,A,A,B,B,B,A,B,B,B,A,A,A,A,A,A,D,A,A,A,A,A
A,A,A,A,D,E,D,A,A,A,A,A,A,A,A,A,A,A,A,B,H,H,H,B,H,H,H,B,A,A,A,A,D,E,D,A,A,A,A
A,A,A,D,E,E,E,D,A,A,A,A,A,A,A,A,A,A,A,B,H,C,H,H,H,H,H,B,A,A,A,D,E,E,E,D,A,A,A
A,A,D,E,E,E,E,D,A,A,A,A,A,A,A,A,A,A,A,A,B,H,H,H,H,H,B,A,A,A,A,D,E,E,E,E,D,A,A
A,A,D,E,E,E,E,D,A,A,A,A,A,A,A,A,A,A,A,A,A,B,H,H,H,B,A,A,A,A,A,D,E,E,E,E,E,A,A
A,A,A,D,E,E,E,D,A,A,A,A,A,A,A,A,A,A,A,A,A,A,B,H,B,A,A,A,A,A,A,D,E,E,E,E,E,D,A
A,D,D,E,E,E,E,D,A,A,A,A,A,A,A,A,D,A,D,D,A,A,A,B,A,A,A,A,A,A,A,D,E,E,E,E,E,D,A
D,E,E,E,E,E,E,D,A,A,A,A,A,A,A,D,F,D,F,F,D,A,A,A,A,A,A,A,A,A,A,D,E,E,E,E,E,D,A
D,E,E,E,E,E,E,D,A,A,A,A,A,A,A,D,F,F,D,F,F,D,D,A,A,A,A,A,A,A,A,D,E,E,E,E,E,E,D
D,E,E,E,E,E,E,D,A,A,A,A,A,D,D,F,F,F,F,F,F,F,F,D,D,D,A,A,A,A,A,D,E,E,E,E,E,E,D
D,E,E,E,E,E,E,D,A,A,A,A,D,F,F,F,F,F,F,F,F,F,F,F,F,F,D,A,A,A,A,D,E,E,E,E,E,E,D
D,E,E,E,E,E,E,D,A,A,A,D,D,F,F,F,F,F,F,F,F,F,F,F,F,D,F,D,A,A,A,D,E,E,E,E,E,E,D
D,E,E,E,E,E,D,D,A,A,D,D,G,D,F,F,F,F,F,F,F,F,F,F,D,G,D,D,A,A,D,D,E,E,E,E,E,D,A
D,E,E,E,E,E,D,F,D,D,G,G,G,G,G,F,F,F,F,F,F,F,F,F,G,G,G,G,D,A,D,D,E,E,E,E,E,D,A
A,D,E,E,E,E,D,F,D,G,G,G,G,G,G,F,F,F,D,D,F,F,F,F,G,G,G,G,G,D,F,D,E,E,E,E,E,D,A
A,D,E,E,E,E,D,F,D,G,G,G,B,G,G,F,F,D,F,F,D,F,F,G,G,B,G,G,G,D,F,D,E,E,E,E,D,A,A
A,A,D,E,E,E,D,F,D,G,G,B,C,B,G,F,F,F,F,F,F,F,F,G,B,C,B,G,G,D,F,D,E,E,E,E,D,A,A
A,A,D,E,E,E,D,F,D,G,B,B,C,B,B,F,F,D,D,D,D,F,F,B,B,C,B,B,G,D,F,D,E,E,D,D,A,A,A
A,A,A,D,E,E,D,F,D,G,B,B,B,B,B,F,D,D,D,D,D,D,F,B,B,B,B,B,G,D,F,D,E,E,D,A,A,A,A
A,A,A,A,D,D,D,D,D,G,B,B,B,B,B,D,D,D,D,D,D,D,D,B,B,B,B,B,G,D,D,D,D,E,D,A,A,A,A
A,A,A,D,F,F,F,F,D,G,G,B,B,B,B,D,D,D,D,D,D,D,D,B,B,B,B,G,D,F,F,F,F,D,D,A,A,A,A
A,A,D,F,F,F,F,F,F,D,G,G,B,B,G,F,D,D,D,D,D,D,F,G,B,B,G,G,D,F,F,F,F,F,F,D,A,A,A
A,A,D,F,F,F,F,F,F,D,F,G,G,G,F,F,F,D,D,D,D,F,F,F,G,G,G,F,D,F,F,F,F,F,F,D,A,A,A
A,A,A,D,F,D,F,D,F,D,F,F,F,F,F,F,F,F,F,F,F,F,F,F,F,F,F,F,D,F,D,F,D,F,D,A,A,A,A
A,A,A,A,D,D,D,D,D,A,D,D,D,D,D,D,D,D,D,D,D,D,D,D,D,D,D,D,A,D,D,D,D,D,A,A,A,A,A
